%YAML 1.1
%TAG !u! tag:unity3d.com,2011:
--- !u!114 &11400000
MonoBehaviour:
  m_ObjectHideFlags: 0
  m_CorrespondingSourceObject: {fileID: 0}
  m_PrefabInstance: {fileID: 0}
  m_PrefabAsset: {fileID: 0}
  m_GameObject: {fileID: 0}
  m_Enabled: 1
  m_EditorHideFlags: 0
  m_Script: {fileID: 11500000, guid: 853de8ab2273443dbba63f12752066b5, type: 3}
  m_Name: BulletBouncePattern-RL-M
  m_EditorClassIdentifier: 
  length: 32
  elements:
  - type: 12
    positionX: -0.5
    positionZ: 0
    length: 0
    width: 0.01
    height: 0.01
    value: 0
  - type: 12
    positionX: 0.5
    positionZ: 0
    length: 0
    width: 0.01
    height: 0.01
    value: 0
  - type: 12
    positionX: 0.125
    positionZ: 2
    length: 0
    width: 0.01
    height: 0.01
    value: 0
  - type: 12
    positionX: 1.125
    positionZ: 2
    length: 0
    width: 0.01
    height: 0.01
    value: 0
  - type: 12
    positionX: 0.75
    positionZ: 3.9999998
    length: 0
    width: 0.01
    height: 0.01
    value: 0
  - type: 12
    positionX: 1.75
    positionZ: 4
    length: 0
    width: 0.01
    height: 0.01
    value: 0
  - type: 12
    positionX: 1.375
    positionZ: 5.9999995
    length: 0
    width: 0.01
    height: 0.01
    value: 0
  - type: 12
    positionX: 2.375
    positionZ: 6
    length: 0
    width: 0.01
    height: 0.01
    value: 0
  - type: 12
    positionX: 3
    positionZ: 8
    length: 0
    width: 0.01
    height: 0.01
    value: 0
  - type: 12
    positionX: 2
    positionZ: 8
    length: 0
    width: 0.01
    height: 0.01
    value: 0
  - type: 12
    positionX: 1.75
    positionZ: 10
    length: 0
    width: 0.01
    height: 0.01
    value: 0
  - type: 12
    positionX: 0.75
    positionZ: 10.000003
    length: 0
    width: 0.01
    height: 0.01
    value: 0
  - type: 12
    positionX: -0.5
    positionZ: 12
    length: 0
    width: 0.01
    height: 0.01
    value: 0
  - type: 12
    positionX: 0.5
    positionZ: 12
    length: 0
    width: 0.01
    height: 0.01
    value: 0
  - type: 12
    positionX: -1.75
    positionZ: 14
    length: 0
    width: 0.01
    height: 0.01
    value: 0
  - type: 12
    positionX: -0.75
    positionZ: 14
    length: 0
    width: 0.01
    height: 0.01
    value: 0
  - type: 12
    positionX: -3
    positionZ: 16
    length: 0
    width: 0.01
    height: 0.01
    value: 0
  - type: 12
    positionX: -2
    positionZ: 16
    length: 0
    width: 0.01
    height: 0.01
    value: 0
  widthCurve:
    serializedVersion: 2
    m_Curve:
    - serializedVersion: 3
      time: 0
      value: 1
      inSlope: 0.0104658315
      outSlope: 2
      tangentMode: 69
      weightedMode: 2
      inWeight: 0
      outWeight: 0.4932583
    - serializedVersion: 3
      time: 0.25
      value: 1.5
      inSlope: 2
      outSlope: -2
      tangentMode: 69
      weightedMode: 2
      inWeight: 0.33333334
      outWeight: 0.24797836
    - serializedVersion: 3
      time: 0.5
      value: 1
      inSlope: -2
      outSlope: 0
      tangentMode: 69
      weightedMode: 1
      inWeight: 0.48247996
      outWeight: 0.33333334
    - serializedVersion: 3
      time: 1
      value: 1
      inSlope: 0
      outSlope: 0
      tangentMode: 34
      weightedMode: 0
      inWeight: 0.33333334
      outWeight: 0
    m_PreInfinity: 2
    m_PostInfinity: 2
    m_RotationOrder: 4
