%YAML 1.1
%TAG !u! tag:unity3d.com,2011:
--- !u!114 &11400000
MonoBehaviour:
  m_ObjectHideFlags: 0
  m_CorrespondingSourceObject: {fileID: 0}
  m_PrefabInstance: {fileID: 0}
  m_PrefabAsset: {fileID: 0}
  m_GameObject: {fileID: 0}
  m_Enabled: 1
  m_EditorHideFlags: 0
  m_Script: {fileID: 11500000, guid: 052bb9997d764be2b262f214665ec205, type: 3}
  m_Name: GameLevel-04
  m_EditorClassIdentifier: 
  totalLength: 312
  charactersQuantityAtStart: 1
  ammoQuantityAtStart: 24
  enemyQuantityFinisher: 72
  colorPalette: 000000000100000002000000
  patterns:
  - {fileID: 11400000, guid: 492107e63be3c1144b7eab9a63059366, type: 2}
  - {fileID: 11400000, guid: b05c7d775aed94343855a507534c2e56, type: 2}
  - {fileID: 11400000, guid: 9b0b8738e38d4cd49a671dd32590a3ff, type: 2}
  - {fileID: 11400000, guid: ed5f3999ac8072746a9bf846d2e045c3, type: 2}
  - {fileID: 11400000, guid: 5ea5d955c0b10434dbeb8e7d14f69ede, type: 2}
  - {fileID: 11400000, guid: 7524631df8942bf4a83992576cfdb516, type: 2}
  - {fileID: 11400000, guid: a70249ae86571b44ca9b4c0a3816dea6, type: 2}
  - {fileID: 11400000, guid: b05c7d775aed94343855a507534c2e56, type: 2}
  - {fileID: 11400000, guid: 9b0b8738e38d4cd49a671dd32590a3ff, type: 2}
  - {fileID: 11400000, guid: 02f2f2d9ae0433f46b9850596525bf64, type: 2}
  roadShapes: 00000000010000000000000002000000000000000000000001000000020000000000000000000000
  roadShapeAngles: 00000000080000000000000008000000000000000000000008000000080000000000000000000000
