%YAML 1.1
%TAG !u! tag:unity3d.com,2011:
--- !u!319 &31900000
AvatarMask:
  m_ObjectHideFlags: 0
  m_CorrespondingSourceObject: {fileID: 0}
  m_PrefabInstance: {fileID: 0}
  m_PrefabAsset: {fileID: 0}
  m_Name: UpperBodyMask
  m_Mask: 00000000010000000100000000000000000000000100000001000000010000000100000000000000000000000100000001000000
  m_Elements:
  - m_Path: 
    m_Weight: 1
  - m_Path: Boy.c
    m_Weight: 0
  - m_Path: Boy.c/root
    m_Weight: 0
  - m_Path: Boy.c/root/pelvis
    m_Weight: 0
  - m_Path: Boy.c/root/pelvis/spine_01
    m_Weight: 0
  - m_Path: Boy.c/root/pelvis/spine_01/spine_02
    m_Weight: 1
  - m_Path: Boy.c/root/pelvis/spine_01/spine_02/spine_03
    m_Weight: 1
  - m_Path: Boy.c/root/pelvis/spine_01/spine_02/spine_03/clavicle_l
    m_Weight: 1
  - m_Path: Boy.c/root/pelvis/spine_01/spine_02/spine_03/clavicle_l/upperarm_l
    m_Weight: 1
  - m_Path: Boy.c/root/pelvis/spine_01/spine_02/spine_03/clavicle_l/upperarm_l/lowerarm_l
    m_Weight: 1
  - m_Path: Boy.c/root/pelvis/spine_01/spine_02/spine_03/clavicle_l/upperarm_l/lowerarm_l/hand_l
    m_Weight: 1
  - m_Path: Boy.c/root/pelvis/spine_01/spine_02/spine_03/clavicle_l/upperarm_l/lowerarm_l/hand_l/index_01_l
    m_Weight: 1
  - m_Path: Boy.c/root/pelvis/spine_01/spine_02/spine_03/clavicle_l/upperarm_l/lowerarm_l/hand_l/index_01_l/index_02_l
    m_Weight: 1
  - m_Path: Boy.c/root/pelvis/spine_01/spine_02/spine_03/clavicle_l/upperarm_l/lowerarm_l/hand_l/thumb_01_l
    m_Weight: 1
  - m_Path: Boy.c/root/pelvis/spine_01/spine_02/spine_03/clavicle_l/upperarm_l/lowerarm_l/hand_l/thumb_01_l/thumb_02_l
    m_Weight: 1
  - m_Path: Boy.c/root/pelvis/spine_01/spine_02/spine_03/clavicle_r
    m_Weight: 1
  - m_Path: Boy.c/root/pelvis/spine_01/spine_02/spine_03/clavicle_r/upperarm_r
    m_Weight: 1
  - m_Path: Boy.c/root/pelvis/spine_01/spine_02/spine_03/clavicle_r/upperarm_r/lowerarm_r
    m_Weight: 1
  - m_Path: Boy.c/root/pelvis/spine_01/spine_02/spine_03/clavicle_r/upperarm_r/lowerarm_r/hand_r
    m_Weight: 1
  - m_Path: Boy.c/root/pelvis/spine_01/spine_02/spine_03/clavicle_r/upperarm_r/lowerarm_r/hand_r/index_01_r
    m_Weight: 1
  - m_Path: Boy.c/root/pelvis/spine_01/spine_02/spine_03/clavicle_r/upperarm_r/lowerarm_r/hand_r/index_01_r/index_02_r
    m_Weight: 1
  - m_Path: Boy.c/root/pelvis/spine_01/spine_02/spine_03/clavicle_r/upperarm_r/lowerarm_r/hand_r/thumb_01_r
    m_Weight: 1
  - m_Path: Boy.c/root/pelvis/spine_01/spine_02/spine_03/clavicle_r/upperarm_r/lowerarm_r/hand_r/thumb_01_r/thumb_02_r
    m_Weight: 1
  - m_Path: Boy.c/root/pelvis/spine_01/spine_02/spine_03/neck_01
    m_Weight: 1
  - m_Path: Boy.c/root/pelvis/spine_01/spine_02/spine_03/neck_01/head
    m_Weight: 1
  - m_Path: Boy.c/root/pelvis/thigh_l
    m_Weight: 0
  - m_Path: Boy.c/root/pelvis/thigh_l/calf_l
    m_Weight: 0
  - m_Path: Boy.c/root/pelvis/thigh_l/calf_l/foot_l
    m_Weight: 0
  - m_Path: Boy.c/root/pelvis/thigh_r
    m_Weight: 0
  - m_Path: Boy.c/root/pelvis/thigh_r/calf_r
    m_Weight: 0
  - m_Path: Boy.c/root/pelvis/thigh_r/calf_r/foot_r
    m_Weight: 0
  - m_Path: Cap_03
    m_Weight: 0
  - m_Path: Overalls
    m_Weight: 0
  - m_Path: Shoes_06
    m_Weight: 0
  - m_Path: Stickman_heads_sphere_06
    m_Weight: 0
