%YAML 1.1
%TAG !u! tag:unity3d.com,2011:
--- !u!1 &128170
GameObject:
  m_ObjectHideFlags: 0
  m_CorrespondingSourceObject: {fileID: 0}
  m_PrefabInstance: {fileID: 0}
  m_PrefabAsset: {fileID: 0}
  serializedVersion: 6
  m_Component:
  - component: {fileID: 486122}
  - component: {fileID: 11400040}
  m_Layer: 0
  m_Name: RateBoxPrefab
  m_TagString: Untagged
  m_Icon: {fileID: 0}
  m_NavMeshLayer: 0
  m_StaticEditorFlags: 0
  m_IsActive: 1
--- !u!4 &486122
Transform:
  m_ObjectHideFlags: 0
  m_CorrespondingSourceObject: {fileID: 0}
  m_PrefabInstance: {fileID: 0}
  m_PrefabAsset: {fileID: 0}
  m_GameObject: {fileID: 128170}
  m_LocalRotation: {x: 0, y: 0, z: 0, w: 1}
  m_LocalPosition: {x: 85, y: -8.5, z: 0}
  m_LocalScale: {x: 1, y: 1, z: 1}
  m_Children: []
  m_Father: {fileID: 0}
  m_RootOrder: 0
  m_LocalEulerAnglesHint: {x: 0, y: 0, z: 0}
--- !u!114 &11400040
MonoBehaviour:
  m_ObjectHideFlags: 0
  m_CorrespondingSourceObject: {fileID: 0}
  m_PrefabInstance: {fileID: 0}
  m_PrefabAsset: {fileID: 0}
  m_GameObject: {fileID: 128170}
  m_Enabled: 1
  m_EditorHideFlags: 0
  m_Script: {fileID: 11500000, guid: dc5dafc0461bf4ec6b0ff420236680c0, type: 3}
  m_Name: 
  m_EditorClassIdentifier: 
  minSessionCount: 0
  minCustomEventsCount: 0
  delayAfterInstallInHours: 0
  delayAfterLaunchInHours: 0.00001
  postponeCooldownInHours: 0.1
  requireInternetConnection: 1
  title: Do you like Crow Battle 3D?
  message: Would you like to rate Crow Battle 3D ?
  rateButton: YES
  postponeButton: NOT NOW
  rejectButton: NO
  appStoreAppId: 1556603862
  playMarketAppBundleId: com.pinpinteam.crowdclash
  useIOSReview: 1
  customUIWindow: {fileID: 0}
  clearOnStart: 1
  logDebugMessages: 1
