%YAML 1.1
%TAG !u! tag:unity3d.com,2011:
--- !u!114 &11400000
MonoBehaviour:
  m_ObjectHideFlags: 0
  m_CorrespondingSourceObject: {fileID: 0}
  m_PrefabInstance: {fileID: 0}
  m_PrefabAsset: {fileID: 0}
  m_GameObject: {fileID: 0}
  m_Enabled: 1
  m_EditorHideFlags: 0
  m_Script: {fileID: 11500000, guid: 853de8ab2273443dbba63f12752066b5, type: 3}
  m_Name: SwatterTrapPattern
  m_EditorClassIdentifier: 
  length: 24
  elements:
  - type: 9
    positionX: 0
    positionZ: 4
    length: 24
    width: 0.5
    height: 0
    value: 0
  widthCurve:
    serializedVersion: 2
    m_Curve:
    - serializedVersion: 3
      time: 0
      value: 1
      inSlope: 10.2126465
      outSlope: 10.2126465
      tangentMode: 0
      weightedMode: 2
      inWeight: 0
      outWeight: 0.18978101
    - serializedVersion: 3
      time: 0.16666667
      value: 1.5
      inSlope: -0.0020383878
      outSlope: -0.0020383878
      tangentMode: 0
      weightedMode: 3
      inWeight: 0.35393393
      outWeight: 0.33333334
    - serializedVersion: 3
      time: 0.33333334
      value: 1
      inSlope: -6.3680215
      outSlope: 0
      tangentMode: 65
      weightedMode: 0
      inWeight: 0.10948902
      outWeight: 0.33333334
    - serializedVersion: 3
      time: 1
      value: 1
      inSlope: 0
      outSlope: 0
      tangentMode: 34
      weightedMode: 0
      inWeight: 0.33333334
      outWeight: 0
    m_PreInfinity: 2
    m_PostInfinity: 2
    m_RotationOrder: 4
