%YAML 1.1
%TAG !u! tag:unity3d.com,2011:
--- !u!114 &11400000
MonoBehaviour:
  m_ObjectHideFlags: 0
  m_CorrespondingSourceObject: {fileID: 0}
  m_PrefabInstance: {fileID: 0}
  m_PrefabAsset: {fileID: 0}
  m_GameObject: {fileID: 0}
  m_Enabled: 1
  m_EditorHideFlags: 0
  m_Script: {fileID: 11500000, guid: 853de8ab2273443dbba63f12752066b5, type: 3}
  m_Name: CrowdTriplePattern-S
  m_EditorClassIdentifier: 
  length: 40
  elements:
  - type: 3
    positionX: -2.5
    positionZ: 16
    length: 3
    width: 0.5
    height: 0.01
    value: 2
  - type: 3
    positionX: 2.5
    positionZ: 16
    length: 3
    width: 0.5
    height: 0.01
    value: 2
  - type: 3
    positionX: 0
    positionZ: 24.000002
    length: 5
    width: 0.5
    height: 0.01
    value: 2
  widthCurve:
    serializedVersion: 2
    m_Curve:
    - serializedVersion: 3
      time: 0
      value: 1
      inSlope: 2.5
      outSlope: 2.5
      tangentMode: 34
      weightedMode: 0
      inWeight: 0
      outWeight: 0.33333334
    - serializedVersion: 3
      time: 0.2
      value: 1.5
      inSlope: 2.5
      outSlope: 0
      tangentMode: 69
      weightedMode: 0
      inWeight: 0.33333334
      outWeight: 0.33333334
    - serializedVersion: 3
      time: 0.6
      value: 1.5
      inSlope: -0
      outSlope: -2.5000002
      tangentMode: 69
      weightedMode: 0
      inWeight: 0.33333334
      outWeight: 0.33333334
    - serializedVersion: 3
      time: 0.8
      value: 1
      inSlope: -2.5000002
      outSlope: 0
      tangentMode: 69
      weightedMode: 0
      inWeight: 0.33333334
      outWeight: 0.33333334
    - serializedVersion: 3
      time: 1
      value: 1
      inSlope: 0
      outSlope: 0
      tangentMode: 34
      weightedMode: 0
      inWeight: 0.33333334
      outWeight: 0
    m_PreInfinity: 2
    m_PostInfinity: 2
    m_RotationOrder: 4
