%YAML 1.1
%TAG !u! tag:unity3d.com,2011:
--- !u!1001 &100100000
Prefab:
  m_ObjectHideFlags: 1
  serializedVersion: 2
  m_Modification:
    m_TransformParent: {fileID: 0}
    m_Modifications: []
    m_RemovedComponents: []
  m_SourcePrefab: {fileID: 0}
  m_RootGameObject: {fileID: 1927391342339730}
  m_IsPrefabAsset: 1
--- !u!1 &1927391342339730
GameObject:
  m_ObjectHideFlags: 0
  m_CorrespondingSourceObject: {fileID: 0}
  m_PrefabInternal: {fileID: 100100000}
  serializedVersion: 6
  m_Component:
  - component: {fileID: 4990350310914842}
  - component: {fileID: 114680626386365820}
  - component: {fileID: 114182324109487184}
  - component: {fileID: 114561601962053624}
  - component: {fileID: 114373807120655410}
  m_Layer: 0
  m_Name: ApplicationManager
  m_TagString: Untagged
  m_Icon: {fileID: 0}
  m_NavMeshLayer: 0
  m_StaticEditorFlags: 0
  m_IsActive: 1
--- !u!4 &4990350310914842
Transform:
  m_ObjectHideFlags: 1
  m_CorrespondingSourceObject: {fileID: 0}
  m_PrefabInternal: {fileID: 100100000}
  m_GameObject: {fileID: 1927391342339730}
  m_LocalRotation: {x: 0, y: 0, z: 0, w: 1}
  m_LocalPosition: {x: 0, y: 0, z: 0}
  m_LocalScale: {x: 1, y: 1, z: 1}
  m_Children: []
  m_Father: {fileID: 0}
  m_RootOrder: 0
  m_LocalEulerAnglesHint: {x: 0, y: 0, z: 0}
--- !u!114 &114182324109487184
MonoBehaviour:
  m_ObjectHideFlags: 1
  m_CorrespondingSourceObject: {fileID: 0}
  m_PrefabInternal: {fileID: 100100000}
  m_GameObject: {fileID: 1927391342339730}
  m_Enabled: 0
  m_EditorHideFlags: 0
  m_Script: {fileID: 11500000, guid: a7dea9ef557bb415caa35ba3d26d63d6, type: 3}
  m_Name: 
  m_EditorClassIdentifier: 
  m_anchor: 1
  m_historyLimit: 100
--- !u!114 &114373807120655410
MonoBehaviour:
  m_ObjectHideFlags: 1
  m_CorrespondingSourceObject: {fileID: 0}
  m_PrefabInternal: {fileID: 100100000}
  m_GameObject: {fileID: 1927391342339730}
  m_Enabled: 1
  m_EditorHideFlags: 0
  m_Script: {fileID: 11500000, guid: 106d008d046a064479f847a3587968b1, type: 3}
  m_Name: 
  m_EditorClassIdentifier: 
  ratebox: {fileID: 0}
--- !u!114 &114561601962053624
MonoBehaviour:
  m_ObjectHideFlags: 1
  m_CorrespondingSourceObject: {fileID: 0}
  m_PrefabInternal: {fileID: 100100000}
  m_GameObject: {fileID: 1927391342339730}
  m_Enabled: 0
  m_EditorHideFlags: 0
  m_Script: {fileID: 11500000, guid: a6bda3c82709a4c938a6d3799a43e617, type: 3}
  m_Name: 
  m_EditorClassIdentifier: 
  m_anchor: 1
--- !u!114 &114680626386365820
MonoBehaviour:
  m_ObjectHideFlags: 1
  m_CorrespondingSourceObject: {fileID: 0}
  m_PrefabInternal: {fileID: 100100000}
  m_GameObject: {fileID: 1927391342339730}
  m_Enabled: 1
  m_EditorHideFlags: 0
  m_Script: {fileID: 11500000, guid: d01356280673d4c20968d28051920555, type: 3}
  m_Name: 
  m_EditorClassIdentifier: 
  m_gameConfig: {fileID: 11400000, guid: 7d8c7b38244a8480c9fef40a8d250ae1, type: 2}
  m_gameAssets: {fileID: 11400000, guid: 613f0357d1f6a4f84898de87ac56bbc0, type: 2}
  m_gameDatas: {fileID: 11400000, guid: e36a9523ea9b74f03a9c2cb4e64ad7ce, type: 2}
  m_rateBoxPrefab: {fileID: 0}
  m_gdgRemoteDatas: {fileID: 114373807120655410}
